v 0.000000 0.404509 -0.293893
v 0.000000 0.154508 -0.475528
v 0.000000 -0.154509 -0.475528
v 0.000000 -0.404509 -0.293893
v 0.207813 0.404509 -0.207813
v 0.336249 0.154508 -0.336249
v 0.336249 -0.154509 -0.336249
v 0.207813 -0.404509 -0.207813
v 0.293893 0.404509 0.000000
v 0.475528 0.154508 0.000000
v 0.475528 -0.154509 0.000000
v 0.293893 -0.404509 0.000000
v 0.000000 -0.500000 0.000000
v 0.207813 0.404509 0.207814
v 0.336249 0.154508 0.336249
v 0.336249 -0.154509 0.336249
v 0.207813 -0.404509 0.207814
v 0.000000 0.404509 0.293893
v 0.000000 0.154508 0.475528
v 0.000000 -0.154509 0.475528
v -0.000000 -0.404509 0.293893
v -0.000000 0.500000 0.000000
v -0.207813 0.404509 0.207814
v -0.336249 0.154508 0.336249
v -0.336249 -0.154509 0.336249
v -0.207813 -0.404509 0.207813
v -0.293893 0.404509 0.000000
v -0.475528 0.154508 0.000000
v -0.475528 -0.154509 0.000000
v -0.293893 -0.404509 0.000000
v -0.207813 0.404509 -0.207813
v -0.336249 0.154508 -0.336249
v -0.336249 -0.154509 -0.336249
v -0.207813 -0.404509 -0.207813
vt 0.750000 0.400000
vt 0.625000 0.200000
vt 0.750000 0.200000
vt 0.750000 0.800000
vt 0.625000 0.600000
vt 0.750000 0.600000
vt 0.687500 0.000000
vt 0.625000 0.400000
vt 0.687500 1.000000
vt 0.625000 0.800000
vt 0.500000 0.200000
vt 0.500000 0.600000
vt 0.562500 0.000000
vt 0.500000 0.400000
vt 0.562500 1.000000
vt 0.500000 0.800000
vt 0.375000 0.400000
vt 0.375000 0.200000
vt 0.375000 0.800000
vt 0.375000 0.600000
vt 0.437500 0.000000
vt 0.437500 1.000000
vt 0.250000 0.200000
vt 0.250000 0.600000
vt 0.312500 0.000000
vt 0.250000 0.400000
vt 0.312500 1.000000
vt 0.250000 0.800000
vt 0.125000 0.200000
vt 0.125000 0.600000
vt 0.187500 0.000000
vt 0.125000 0.400000
vt 0.187500 1.000000
vt 0.125000 0.800000
vt 0.000000 0.200000
vt 0.000000 0.600000
vt 0.062500 0.000000
vt 0.000000 0.400000
vt 0.062500 1.000000
vt 0.000000 0.800000
vt 1.000000 0.400000
vt 0.875000 0.200000
vt 1.000000 0.200000
vt 1.000000 0.800000
vt 0.875000 0.600000
vt 1.000000 0.600000
vt 0.937500 0.000000
vt 0.875000 0.400000
vt 0.937500 1.000000
vt 0.875000 0.800000
vt 0.812500 0.000000
vt 0.812500 1.000000
vn 0.0000 -0.2889 -0.9573
vn 0.4480 -0.7736 -0.4480
vn 0.0000 -0.7736 -0.6336
vn 0.0000 0.7736 -0.6336
vn 0.6769 0.2889 -0.6769
vn 0.0000 0.2889 -0.9573
vn 0.0000 -1.0000 0.0000
vn 0.6769 -0.2889 -0.6769
vn 0.0000 1.0000 0.0000
vn 0.4480 0.7736 -0.4480
vn 0.6336 -0.7736 0.0000
vn 0.9573 0.2889 0.0000
vn 0.9573 -0.2889 0.0000
vn 0.6336 0.7736 0.0000
vn 0.6769 -0.2889 0.6769
vn 0.4480 -0.7736 0.4480
vn 0.4480 0.7736 0.4480
vn 0.6769 0.2889 0.6769
vn 0.0000 -0.7736 0.6336
vn 0.0000 0.2889 0.9573
vn 0.0000 -0.2889 0.9573
vn 0.0000 0.7736 0.6336
vn -0.4480 -0.7736 0.4480
vn -0.6769 0.2889 0.6769
vn -0.6769 -0.2889 0.6769
vn -0.4480 0.7736 0.4480
vn -0.6336 -0.7736 0.0000
vn -0.9573 0.2889 0.0000
vn -0.9573 -0.2889 0.0000
vn -0.6336 0.7736 0.0000
vn -0.4480 -0.7736 -0.4480
vn -0.6769 0.2889 -0.6769
vn -0.6769 -0.2889 -0.6769
vn -0.4480 0.7736 -0.4480
f 3/1/1 8/2/2 4/3/3
f 1/4/4 6/5/5 2/6/6
f 13/7/7 4/3/3 8/2/2
f 2/6/6 7/8/8 3/1/1
f 1/4/4 22/9/9 5/10/10
f 7/8/8 12/11/11 8/2/2
f 5/10/10 10/12/12 6/5/5
f 13/13/7 8/2/2 12/11/11
f 7/8/8 10/12/12 11/14/13
f 5/10/10 22/15/9 9/16/14
f 12/11/11 16/17/15 17/18/16
f 10/12/12 14/19/17 15/20/18
f 13/21/7 12/11/11 17/18/16
f 10/12/12 16/17/15 11/14/13
f 9/16/14 22/22/9 14/19/17
f 16/17/15 21/23/19 17/18/16
f 14/19/17 19/24/20 15/20/18
f 13/25/7 17/18/16 21/23/19
f 15/20/18 20/26/21 16/17/15
f 14/19/17 22/27/9 18/28/22
f 20/26/21 26/29/23 21/23/19
f 18/28/22 24/30/24 19/24/20
f 13/31/7 21/23/19 26/29/23
f 19/24/20 25/32/25 20/26/21
f 18/28/22 22/33/9 23/34/26
f 25/32/25 30/35/27 26/29/23
f 23/34/26 28/36/28 24/30/24
f 13/37/7 26/29/23 30/35/27
f 24/30/24 29/38/29 25/32/25
f 23/34/26 22/39/9 27/40/30
f 29/41/29 34/42/31 30/43/27
f 27/44/30 32/45/32 28/46/28
f 13/47/7 30/43/27 34/42/31
f 28/46/28 33/48/33 29/41/29
f 27/44/30 22/49/9 31/50/34
f 33/48/33 4/3/3 34/42/31
f 31/50/34 2/6/6 32/45/32
f 13/51/7 34/42/31 4/3/3
f 32/45/32 3/1/1 33/48/33
f 31/50/34 22/52/9 1/4/4
f 3/1/1 7/8/8 8/2/2
f 1/4/4 5/10/10 6/5/5
f 2/6/6 6/5/5 7/8/8
f 7/8/8 11/14/13 12/11/11
f 5/10/10 9/16/14 10/12/12
f 7/8/8 6/5/5 10/12/12
f 12/11/11 11/14/13 16/17/15
f 10/12/12 9/16/14 14/19/17
f 10/12/12 15/20/18 16/17/15
f 16/17/15 20/26/21 21/23/19
f 14/19/17 18/28/22 19/24/20
f 15/20/18 19/24/20 20/26/21
f 20/26/21 25/32/25 26/29/23
f 18/28/22 23/34/26 24/30/24
f 19/24/20 24/30/24 25/32/25
f 25/32/25 29/38/29 30/35/27
f 23/34/26 27/40/30 28/36/28
f 24/30/24 28/36/28 29/38/29
f 29/41/29 33/48/33 34/42/31
f 27/44/30 31/50/34 32/45/32
f 28/46/28 32/45/32 33/48/33
f 33/48/33 3/1/1 4/3/3
f 31/50/34 1/4/4 2/6/6
f 32/45/32 2/6/6 3/1/1
